<svg width="74" height="96" viewBox="0 0 74 96" fill="none" xmlns="http://www.w3.org/2000/svg">
<path fill-rule="evenodd" clip-rule="evenodd" d="M54.202 56.7764C62.73 51.2377 68.3549 41.7374 68.3549 30.9474C68.3549 13.8556 54.2413 9.48385e-06 36.8313 6.4398e-06C19.4214 3.39574e-06 5.3078 13.8556 5.3078 30.9474C5.3078 41.6157 10.8065 51.0233 19.1733 56.5875L0.691024 88.4098C-1.26534 91.7782 1.16488 96 5.06019 96L68.2053 96C72.1006 96 74.5309 91.7782 72.5745 88.4098L54.202 56.7764ZM54.202 56.7764L37.7251 28.407C37.2382 27.5687 36.0274 27.5687 35.5405 28.407L19.1733 56.5875C24.2109 59.9378 30.2883 61.8947 36.8313 61.8947C43.2504 61.8947 49.2213 60.0112 54.202 56.7764Z" fill="#F8D72B"/>
</svg>
